Power OFF:
	0x00 0xdc 0x28 0x04 0x02 0x00 0xd2 
	0x00 0xdc 0x28 0x08 0x02 0x00 0xce 

Hard Reset:
	0x00 0xdc 0x28 0x04 0x02 0x03 0xcf 

Power ON:
	0x00 0xdc 0x28 0x04 0x02 0x01 0xd1 
	0x00 0xdc 0x28 0x08 0x02 0x01 0xcd 

Unknown (periodic messages):
	0x18 0xc4 0x28 0x04 0x25 0xaf 
	0x18 0xc4 0x28 0x04 0x01 0xd3 
	0x18 0xc4 0x28 0x08 0x25 0xab 
	0x18 0xc4 0x28 0x08 0x01 0xcf 
